%YAML 1.1
%TAG !u! tag:unity3d.com,2011:
--- !u!1045 &1
EditorBuildSettings:
  m_ObjectHideFlags: 0
  serializedVersion: 2
  m_Scenes:
  - enabled: 1
    path: Assets/anaMenu.unity
    guid: e18658026533e6248ae6431e9eb91302
  - enabled: 1
    path: Assets/level.unity
    guid: bd0454bd044454a459e8d51df19b0151
  m_configObjects: {}
